<?xml version="1.0" encoding="UTF-8" standalone="no"?>
<!-- Created with Inkscape (http://www.inkscape.org/) -->

<svg
   xmlns:dc="http://purl.org/dc/elements/1.1/"
   xmlns:cc="http://creativecommons.org/ns#"
   xmlns:rdf="http://www.w3.org/1999/02/22-rdf-syntax-ns#"
   xmlns:svg="http://www.w3.org/2000/svg"
   xmlns="http://www.w3.org/2000/svg"
   xmlns:sodipodi="http://sodipodi.sourceforge.net/DTD/sodipodi-0.dtd"
   xmlns:inkscape="http://www.inkscape.org/namespaces/inkscape"
   width="7.5in"
   height="7.5in"
   viewBox="0 0 190.5 190.5"
   version="1.1"
   id="svg8"
   inkscape:version="0.92.4 (5da689c313, 2019-01-14)"
   sodipodi:docname="logo-only.svg">
  <defs
     id="defs2">
    <clipPath
       id="clipPath28"
       clipPathUnits="userSpaceOnUse">
      <path
         inkscape:connector-curvature="0"
         id="path26"
         d="M 0,500 H 500 V 0 H 0 Z" />
    </clipPath>
  </defs>
  <sodipodi:namedview
     id="base"
     pagecolor="#ffffff"
     bordercolor="#666666"
     borderopacity="1.0"
     inkscape:pageopacity="0.0"
     inkscape:pageshadow="2"
     inkscape:zoom="0.35"
     inkscape:cx="-27.142857"
     inkscape:cy="560"
     inkscape:document-units="mm"
     inkscape:current-layer="g176"
     showgrid="false"
     inkscape:window-width="2560"
     inkscape:window-height="1387"
     inkscape:window-x="-8"
     inkscape:window-y="-8"
     inkscape:window-maximized="1"
     inkscape:snap-page="false"
     units="in"
     height="8.25in" />
  <metadata
     id="metadata5">
    <rdf:RDF>
      <cc:Work
         rdf:about="">
        <dc:format>image/svg+xml</dc:format>
        <dc:type
           rdf:resource="http://purl.org/dc/dcmitype/StillImage" />
        <dc:title></dc:title>
      </cc:Work>
    </rdf:RDF>
  </metadata>
  <g
     inkscape:label="Layer 1"
     inkscape:groupmode="layer"
     id="layer1"
     transform="translate(0,-106.5)">
    <g
       transform="matrix(0.88612386,0,0,-0.90079308,-87.362871,649.78885)"
       inkscape:label="Acme Logos"
       id="g140">
      <g
         id="g144">
        <g
           id="g176"
           transform="matrix(3.2134237,0,0,2.3181345,203.90529,504.33355)">
          <path
             d="m 0.0592788,-2.172111 c -2.5853332,0.037 -4.7047292,2.60699999 -4.7352419,5.744 -0.029688,3.135 2.0427019,5.647 4.6280351,5.612 2.586158,-0.035 4.7063787,-2.607 4.7360667,-5.743 0.030513,-3.13700001 -2.0418772,-5.649 -4.6288599,-5.613 m 10.4905982,-11.702 c 0,0 4.111793,35.847 -9.5001722,49.271 l -0.7364283,2.452 c -0.1566869,0.521 -0.7611683,0.533 -0.9310498,0.017 l -0.801577,-2.428 c -13.3703377,-13.043 -8.6722057,-49.025 -8.6722057,-49.025 -10.336385,-9.85 -7.821973,-6.159 -1.923125,-23.531 1.124022,-3.317 3.0949779,-2.535 3.9864439,-0.141 0.890641,2.391 2.858298,7.673 2.858298,7.673 h 0.9343485 l 3.6112199,-13.991 c 0.3240944,-1.257 1.7911783,-1.257 2.1160974,0 l 3.6103952,13.991 h 0.8576544 c 0,0 2.1358894,-5.494 3.072712,-7.912 0.9368225,-2.419 2.9217977,-3.255 3.9847947,0.031 5.57063,17.212 8.057828,13.453 -2.467406,23.593"
             style="fill:#313149;fill-opacity:1;fill-rule:nonzero;stroke:none;stroke-width:0.90811217"
             id="path178"
             inkscape:connector-curvature="0"
             inkscape:export-xdpi="166.60091"
             inkscape:export-ydpi="166.60091" />
        </g>
      </g>
    </g>
  </g>
</svg>
